%!PS-Adobe-2.0
%%Title: ps_symbols.ps
%%Creator: gnuplot 5.0 patchlevel 0
%%CreationDate: Thu Feb 19 12:32:03 2015
%%DocumentFonts: (atend)
%%BoundingBox: 50 50 554 532
%%Orientation: Landscape
%%Pages: (atend)
%%EndComments
%%BeginProlog
/gnudict 256 dict def
gnudict begin
%
% The following true/false flags may be edited by hand if desired.
% The unit line width and grayscale image gamma correction may also be changed.
%
/Color false def
/Blacktext false def
/Solid false def
/Dashlength 1 def
/Landscape true def
/Level1 false def
/Level3 false def
/Rounded false def
/ClipToBoundingBox false def
/SuppressPDFMark false def
/TransparentPatterns false def
/gnulinewidth 7.500 def
/userlinewidth gnulinewidth def
/Gamma 1.0 def
/BackgroundColor {-1.000 -1.000 -1.000} def
%
/vshift -46 def
/dl1 {
  10.0 Dashlength userlinewidth gnulinewidth div mul mul mul
  Rounded { currentlinewidth 0.75 mul sub dup 0 le { pop 0.01 } if } if
} def
/dl2 {
  10.0 Dashlength userlinewidth gnulinewidth div mul mul mul
  Rounded { currentlinewidth 0.75 mul add } if
} def
/hpt_ 31.5 def
/vpt_ 31.5 def
/hpt hpt_ def
/vpt vpt_ def
/doclip {
  ClipToBoundingBox {
    newpath 50 50 moveto 554 50 lineto 554 532 lineto 50 532 lineto closepath
    clip
  } if
} def
%
% Gnuplot Prolog Version 5.0 (Dec 2014)
%
%/SuppressPDFMark true def
%
/M {moveto} bind def
/L {lineto} bind def
/R {rmoveto} bind def
/V {rlineto} bind def
/N {newpath moveto} bind def
/Z {closepath} bind def
/C {setrgbcolor} bind def
/f {rlineto fill} bind def
/g {setgray} bind def
/Gshow {show} def   % May be redefined later in the file to support UTF-8
/vpt2 vpt 2 mul def
/hpt2 hpt 2 mul def
/Lshow {currentpoint stroke M 0 vshift R 
	Blacktext {gsave 0 setgray textshow grestore} {textshow} ifelse} def
/Rshow {currentpoint stroke M dup stringwidth pop neg vshift R
	Blacktext {gsave 0 setgray textshow grestore} {textshow} ifelse} def
/Cshow {currentpoint stroke M dup stringwidth pop -2 div vshift R 
	Blacktext {gsave 0 setgray textshow grestore} {textshow} ifelse} def
/UP {dup vpt_ mul /vpt exch def hpt_ mul /hpt exch def
  /hpt2 hpt 2 mul def /vpt2 vpt 2 mul def} def
/DL {Color {setrgbcolor Solid {pop []} if 0 setdash}
 {pop pop pop 0 setgray Solid {pop []} if 0 setdash} ifelse} def
/BL {stroke userlinewidth 2 mul setlinewidth
	Rounded {1 setlinejoin 1 setlinecap} if} def
/AL {stroke userlinewidth 2 div setlinewidth
	Rounded {1 setlinejoin 1 setlinecap} if} def
/UL {dup gnulinewidth mul /userlinewidth exch def
	dup 1 lt {pop 1} if 10 mul /udl exch def} def
/PL {stroke userlinewidth setlinewidth
	Rounded {1 setlinejoin 1 setlinecap} if} def
3.8 setmiterlimit
% Classic Line colors (version 5.0)
/LCw {1 1 1} def
/LCb {0 0 0} def
/LCa {0 0 0} def
/LC0 {1 0 0} def
/LC1 {0 1 0} def
/LC2 {0 0 1} def
/LC3 {1 0 1} def
/LC4 {0 1 1} def
/LC5 {1 1 0} def
/LC6 {0 0 0} def
/LC7 {1 0.3 0} def
/LC8 {0.5 0.5 0.5} def
% Default dash patterns (version 5.0)
/LTw {PL [] 1 setgray} def
/LTb {BL [] LCb DL} def
/LTa {AL [1 udl mul 2 udl mul] 0 setdash LCa setrgbcolor} def
/LT0 {PL [] LC0 DL} def
/LT1 {PL [2 dl1 3 dl2] LC1 DL} def
/LT2 {PL [1 dl1 1.5 dl2] LC2 DL} def
/LT3 {PL [6 dl1 2 dl2 1 dl1 2 dl2] LC3 DL} def
/LT4 {PL [1 dl1 2 dl2 6 dl1 2 dl2 1 dl1 2 dl2] LC4 DL} def
/LT5 {PL [4 dl1 2 dl2] LC5 DL} def
/LT6 {PL [1.5 dl1 1.5 dl2 1.5 dl1 1.5 dl2 1.5 dl1 6 dl2] LC6 DL} def
/LT7 {PL [3 dl1 3 dl2 1 dl1 3 dl2] LC7 DL} def
/LT8 {PL [2 dl1 2 dl2 2 dl1 6 dl2] LC8 DL} def
/SL {[] 0 setdash} def
/Pnt {stroke [] 0 setdash gsave 1 setlinecap M 0 0 V stroke grestore} def
/Dia {stroke [] 0 setdash 2 copy vpt add M
  hpt neg vpt neg V hpt vpt neg V
  hpt vpt V hpt neg vpt V closepath stroke
  Pnt} def
/Pls {stroke [] 0 setdash vpt sub M 0 vpt2 V
  currentpoint stroke M
  hpt neg vpt neg R hpt2 0 V stroke
 } def
/Box {stroke [] 0 setdash 2 copy exch hpt sub exch vpt add M
  0 vpt2 neg V hpt2 0 V 0 vpt2 V
  hpt2 neg 0 V closepath stroke
  Pnt} def
/Crs {stroke [] 0 setdash exch hpt sub exch vpt add M
  hpt2 vpt2 neg V currentpoint stroke M
  hpt2 neg 0 R hpt2 vpt2 V stroke} def
/TriU {stroke [] 0 setdash 2 copy vpt 1.12 mul add M
  hpt neg vpt -1.62 mul V
  hpt 2 mul 0 V
  hpt neg vpt 1.62 mul V closepath stroke
  Pnt} def
/Star {2 copy Pls Crs} def
/BoxF {stroke [] 0 setdash exch hpt sub exch vpt add M
  0 vpt2 neg V hpt2 0 V 0 vpt2 V
  hpt2 neg 0 V closepath fill} def
/TriUF {stroke [] 0 setdash vpt 1.12 mul add M
  hpt neg vpt -1.62 mul V
  hpt 2 mul 0 V
  hpt neg vpt 1.62 mul V closepath fill} def
/TriD {stroke [] 0 setdash 2 copy vpt 1.12 mul sub M
  hpt neg vpt 1.62 mul V
  hpt 2 mul 0 V
  hpt neg vpt -1.62 mul V closepath stroke
  Pnt} def
/TriDF {stroke [] 0 setdash vpt 1.12 mul sub M
  hpt neg vpt 1.62 mul V
  hpt 2 mul 0 V
  hpt neg vpt -1.62 mul V closepath fill} def
/DiaF {stroke [] 0 setdash vpt add M
  hpt neg vpt neg V hpt vpt neg V
  hpt vpt V hpt neg vpt V closepath fill} def
/Pent {stroke [] 0 setdash 2 copy gsave
  translate 0 hpt M 4 {72 rotate 0 hpt L} repeat
  closepath stroke grestore Pnt} def
/PentF {stroke [] 0 setdash gsave
  translate 0 hpt M 4 {72 rotate 0 hpt L} repeat
  closepath fill grestore} def
/Circle {stroke [] 0 setdash 2 copy
  hpt 0 360 arc stroke Pnt} def
/CircleF {stroke [] 0 setdash hpt 0 360 arc fill} def
/C0 {BL [] 0 setdash 2 copy moveto vpt 90 450 arc} bind def
/C1 {BL [] 0 setdash 2 copy moveto
	2 copy vpt 0 90 arc closepath fill
	vpt 0 360 arc closepath} bind def
/C2 {BL [] 0 setdash 2 copy moveto
	2 copy vpt 90 180 arc closepath fill
	vpt 0 360 arc closepath} bind def
/C3 {BL [] 0 setdash 2 copy moveto
	2 copy vpt 0 180 arc closepath fill
	vpt 0 360 arc closepath} bind def
/C4 {BL [] 0 setdash 2 copy moveto
	2 copy vpt 180 270 arc closepath fill
	vpt 0 360 arc closepath} bind def
/C5 {BL [] 0 setdash 2 copy moveto
	2 copy vpt 0 90 arc
	2 copy moveto
	2 copy vpt 180 270 arc closepath fill
	vpt 0 360 arc} bind def
/C6 {BL [] 0 setdash 2 copy moveto
	2 copy vpt 90 270 arc closepath fill
	vpt 0 360 arc closepath} bind def
/C7 {BL [] 0 setdash 2 copy moveto
	2 copy vpt 0 270 arc closepath fill
	vpt 0 360 arc closepath} bind def
/C8 {BL [] 0 setdash 2 copy moveto
	2 copy vpt 270 360 arc closepath fill
	vpt 0 360 arc closepath} bind def
/C9 {BL [] 0 setdash 2 copy moveto
	2 copy vpt 270 450 arc closepath fill
	vpt 0 360 arc closepath} bind def
/C10 {BL [] 0 setdash 2 copy 2 copy moveto vpt 270 360 arc closepath fill
	2 copy moveto
	2 copy vpt 90 180 arc closepath fill
	vpt 0 360 arc closepath} bind def
/C11 {BL [] 0 setdash 2 copy moveto
	2 copy vpt 0 180 arc closepath fill
	2 copy moveto
	2 copy vpt 270 360 arc closepath fill
	vpt 0 360 arc closepath} bind def
/C12 {BL [] 0 setdash 2 copy moveto
	2 copy vpt 180 360 arc closepath fill
	vpt 0 360 arc closepath} bind def
/C13 {BL [] 0 setdash 2 copy moveto
	2 copy vpt 0 90 arc closepath fill
	2 copy moveto
	2 copy vpt 180 360 arc closepath fill
	vpt 0 360 arc closepath} bind def
/C14 {BL [] 0 setdash 2 copy moveto
	2 copy vpt 90 360 arc closepath fill
	vpt 0 360 arc} bind def
/C15 {BL [] 0 setdash 2 copy vpt 0 360 arc closepath fill
	vpt 0 360 arc closepath} bind def
/Rec {newpath 4 2 roll moveto 1 index 0 rlineto 0 exch rlineto
	neg 0 rlineto closepath} bind def
/Square {dup Rec} bind def
/Bsquare {vpt sub exch vpt sub exch vpt2 Square} bind def
/S0 {BL [] 0 setdash 2 copy moveto 0 vpt rlineto BL Bsquare} bind def
/S1 {BL [] 0 setdash 2 copy vpt Square fill Bsquare} bind def
/S2 {BL [] 0 setdash 2 copy exch vpt sub exch vpt Square fill Bsquare} bind def
/S3 {BL [] 0 setdash 2 copy exch vpt sub exch vpt2 vpt Rec fill Bsquare} bind def
/S4 {BL [] 0 setdash 2 copy exch vpt sub exch vpt sub vpt Square fill Bsquare} bind def
/S5 {BL [] 0 setdash 2 copy 2 copy vpt Square fill
	exch vpt sub exch vpt sub vpt Square fill Bsquare} bind def
/S6 {BL [] 0 setdash 2 copy exch vpt sub exch vpt sub vpt vpt2 Rec fill Bsquare} bind def
/S7 {BL [] 0 setdash 2 copy exch vpt sub exch vpt sub vpt vpt2 Rec fill
	2 copy vpt Square fill Bsquare} bind def
/S8 {BL [] 0 setdash 2 copy vpt sub vpt Square fill Bsquare} bind def
/S9 {BL [] 0 setdash 2 copy vpt sub vpt vpt2 Rec fill Bsquare} bind def
/S10 {BL [] 0 setdash 2 copy vpt sub vpt Square fill 2 copy exch vpt sub exch vpt Square fill
	Bsquare} bind def
/S11 {BL [] 0 setdash 2 copy vpt sub vpt Square fill 2 copy exch vpt sub exch vpt2 vpt Rec fill
	Bsquare} bind def
/S12 {BL [] 0 setdash 2 copy exch vpt sub exch vpt sub vpt2 vpt Rec fill Bsquare} bind def
/S13 {BL [] 0 setdash 2 copy exch vpt sub exch vpt sub vpt2 vpt Rec fill
	2 copy vpt Square fill Bsquare} bind def
/S14 {BL [] 0 setdash 2 copy exch vpt sub exch vpt sub vpt2 vpt Rec fill
	2 copy exch vpt sub exch vpt Square fill Bsquare} bind def
/S15 {BL [] 0 setdash 2 copy Bsquare fill Bsquare} bind def
/D0 {gsave translate 45 rotate 0 0 S0 stroke grestore} bind def
/D1 {gsave translate 45 rotate 0 0 S1 stroke grestore} bind def
/D2 {gsave translate 45 rotate 0 0 S2 stroke grestore} bind def
/D3 {gsave translate 45 rotate 0 0 S3 stroke grestore} bind def
/D4 {gsave translate 45 rotate 0 0 S4 stroke grestore} bind def
/D5 {gsave translate 45 rotate 0 0 S5 stroke grestore} bind def
/D6 {gsave translate 45 rotate 0 0 S6 stroke grestore} bind def
/D7 {gsave translate 45 rotate 0 0 S7 stroke grestore} bind def
/D8 {gsave translate 45 rotate 0 0 S8 stroke grestore} bind def
/D9 {gsave translate 45 rotate 0 0 S9 stroke grestore} bind def
/D10 {gsave translate 45 rotate 0 0 S10 stroke grestore} bind def
/D11 {gsave translate 45 rotate 0 0 S11 stroke grestore} bind def
/D12 {gsave translate 45 rotate 0 0 S12 stroke grestore} bind def
/D13 {gsave translate 45 rotate 0 0 S13 stroke grestore} bind def
/D14 {gsave translate 45 rotate 0 0 S14 stroke grestore} bind def
/D15 {gsave translate 45 rotate 0 0 S15 stroke grestore} bind def
/DiaE {stroke [] 0 setdash vpt add M
  hpt neg vpt neg V hpt vpt neg V
  hpt vpt V hpt neg vpt V closepath stroke} def
/BoxE {stroke [] 0 setdash exch hpt sub exch vpt add M
  0 vpt2 neg V hpt2 0 V 0 vpt2 V
  hpt2 neg 0 V closepath stroke} def
/TriUE {stroke [] 0 setdash vpt 1.12 mul add M
  hpt neg vpt -1.62 mul V
  hpt 2 mul 0 V
  hpt neg vpt 1.62 mul V closepath stroke} def
/TriDE {stroke [] 0 setdash vpt 1.12 mul sub M
  hpt neg vpt 1.62 mul V
  hpt 2 mul 0 V
  hpt neg vpt -1.62 mul V closepath stroke} def
/PentE {stroke [] 0 setdash gsave
  translate 0 hpt M 4 {72 rotate 0 hpt L} repeat
  closepath stroke grestore} def
/CircE {stroke [] 0 setdash 
  hpt 0 360 arc stroke} def
/Opaque {gsave closepath 1 setgray fill grestore 0 setgray closepath} def
/DiaW {stroke [] 0 setdash vpt add M
  hpt neg vpt neg V hpt vpt neg V
  hpt vpt V hpt neg vpt V Opaque stroke} def
/BoxW {stroke [] 0 setdash exch hpt sub exch vpt add M
  0 vpt2 neg V hpt2 0 V 0 vpt2 V
  hpt2 neg 0 V Opaque stroke} def
/TriUW {stroke [] 0 setdash vpt 1.12 mul add M
  hpt neg vpt -1.62 mul V
  hpt 2 mul 0 V
  hpt neg vpt 1.62 mul V Opaque stroke} def
/TriDW {stroke [] 0 setdash vpt 1.12 mul sub M
  hpt neg vpt 1.62 mul V
  hpt 2 mul 0 V
  hpt neg vpt -1.62 mul V Opaque stroke} def
/PentW {stroke [] 0 setdash gsave
  translate 0 hpt M 4 {72 rotate 0 hpt L} repeat
  Opaque stroke grestore} def
/CircW {stroke [] 0 setdash 
  hpt 0 360 arc Opaque stroke} def
/BoxFill {gsave Rec 1 setgray fill grestore} def
/Density {
  /Fillden exch def
  currentrgbcolor
  /ColB exch def /ColG exch def /ColR exch def
  /ColR ColR Fillden mul Fillden sub 1 add def
  /ColG ColG Fillden mul Fillden sub 1 add def
  /ColB ColB Fillden mul Fillden sub 1 add def
  ColR ColG ColB setrgbcolor} def
/BoxColFill {gsave Rec PolyFill} def
/PolyFill {gsave Density fill grestore grestore} def
/h {rlineto rlineto rlineto gsave closepath fill grestore} bind def
%
% PostScript Level 1 Pattern Fill routine for rectangles
% Usage: x y w h s a XX PatternFill
%	x,y = lower left corner of box to be filled
%	w,h = width and height of box
%	  a = angle in degrees between lines and x-axis
%	 XX = 0/1 for no/yes cross-hatch
%
/PatternFill {gsave /PFa [ 9 2 roll ] def
  PFa 0 get PFa 2 get 2 div add PFa 1 get PFa 3 get 2 div add translate
  PFa 2 get -2 div PFa 3 get -2 div PFa 2 get PFa 3 get Rec
  TransparentPatterns {} {gsave 1 setgray fill grestore} ifelse
  clip
  currentlinewidth 0.5 mul setlinewidth
  /PFs PFa 2 get dup mul PFa 3 get dup mul add sqrt def
  0 0 M PFa 5 get rotate PFs -2 div dup translate
  0 1 PFs PFa 4 get div 1 add floor cvi
	{PFa 4 get mul 0 M 0 PFs V} for
  0 PFa 6 get ne {
	0 1 PFs PFa 4 get div 1 add floor cvi
	{PFa 4 get mul 0 2 1 roll M PFs 0 V} for
 } if
  stroke grestore} def
%
/languagelevel where
 {pop languagelevel} {1} ifelse
dup 2 lt
	{/InterpretLevel1 true def
	 /InterpretLevel3 false def}
	{/InterpretLevel1 Level1 def
	 2 gt
	    {/InterpretLevel3 Level3 def}
	    {/InterpretLevel3 false def}
	 ifelse }
 ifelse
%
% PostScript level 2 pattern fill definitions
%
/Level2PatternFill {
/Tile8x8 {/PaintType 2 /PatternType 1 /TilingType 1 /BBox [0 0 8 8] /XStep 8 /YStep 8}
	bind def
/KeepColor {currentrgbcolor [/Pattern /DeviceRGB] setcolorspace} bind def
<< Tile8x8
 /PaintProc {0.5 setlinewidth pop 0 0 M 8 8 L 0 8 M 8 0 L stroke} 
>> matrix makepattern
/Pat1 exch def
<< Tile8x8
 /PaintProc {0.5 setlinewidth pop 0 0 M 8 8 L 0 8 M 8 0 L stroke
	0 4 M 4 8 L 8 4 L 4 0 L 0 4 L stroke}
>> matrix makepattern
/Pat2 exch def
<< Tile8x8
 /PaintProc {0.5 setlinewidth pop 0 0 M 0 8 L
	8 8 L 8 0 L 0 0 L fill}
>> matrix makepattern
/Pat3 exch def
<< Tile8x8
 /PaintProc {0.5 setlinewidth pop -4 8 M 8 -4 L
	0 12 M 12 0 L stroke}
>> matrix makepattern
/Pat4 exch def
<< Tile8x8
 /PaintProc {0.5 setlinewidth pop -4 0 M 8 12 L
	0 -4 M 12 8 L stroke}
>> matrix makepattern
/Pat5 exch def
<< Tile8x8
 /PaintProc {0.5 setlinewidth pop -2 8 M 4 -4 L
	0 12 M 8 -4 L 4 12 M 10 0 L stroke}
>> matrix makepattern
/Pat6 exch def
<< Tile8x8
 /PaintProc {0.5 setlinewidth pop -2 0 M 4 12 L
	0 -4 M 8 12 L 4 -4 M 10 8 L stroke}
>> matrix makepattern
/Pat7 exch def
<< Tile8x8
 /PaintProc {0.5 setlinewidth pop 8 -2 M -4 4 L
	12 0 M -4 8 L 12 4 M 0 10 L stroke}
>> matrix makepattern
/Pat8 exch def
<< Tile8x8
 /PaintProc {0.5 setlinewidth pop 0 -2 M 12 4 L
	-4 0 M 12 8 L -4 4 M 8 10 L stroke}
>> matrix makepattern
/Pat9 exch def
/Pattern1 {PatternBgnd KeepColor Pat1 setpattern} bind def
/Pattern2 {PatternBgnd KeepColor Pat2 setpattern} bind def
/Pattern3 {PatternBgnd KeepColor Pat3 setpattern} bind def
/Pattern4 {PatternBgnd KeepColor Landscape {Pat5} {Pat4} ifelse setpattern} bind def
/Pattern5 {PatternBgnd KeepColor Landscape {Pat4} {Pat5} ifelse setpattern} bind def
/Pattern6 {PatternBgnd KeepColor Landscape {Pat9} {Pat6} ifelse setpattern} bind def
/Pattern7 {PatternBgnd KeepColor Landscape {Pat8} {Pat7} ifelse setpattern} bind def
} def
%
%
%End of PostScript Level 2 code
%
/PatternBgnd {
  TransparentPatterns {} {gsave 1 setgray fill grestore} ifelse
} def
%
% Substitute for Level 2 pattern fill codes with
% grayscale if Level 2 support is not selected.
%
/Level1PatternFill {
/Pattern1 {0.250 Density} bind def
/Pattern2 {0.500 Density} bind def
/Pattern3 {0.750 Density} bind def
/Pattern4 {0.125 Density} bind def
/Pattern5 {0.375 Density} bind def
/Pattern6 {0.625 Density} bind def
/Pattern7 {0.875 Density} bind def
} def
%
% Now test for support of Level 2 code
%
Level1 {Level1PatternFill} {Level2PatternFill} ifelse
%
/Symbol-Oblique /Symbol findfont [1 0 .167 1 0 0] makefont
dup length dict begin {1 index /FID eq {pop pop} {def} ifelse} forall
currentdict end definefont pop
%
/MFshow {
   { dup 5 get 3 ge
     { 5 get 3 eq {gsave} {grestore} ifelse }
     {dup dup 0 get findfont exch 1 get scalefont setfont
     [ currentpoint ] exch dup 2 get 0 exch R dup 5 get 2 ne {dup dup 6
     get exch 4 get {textshow} {stringwidth pop 0 R} ifelse }if dup 5 get 0 eq
     {dup 3 get {2 get neg 0 exch R pop} {pop aload pop M} ifelse} {dup 5
     get 1 eq {dup 2 get exch dup 3 get exch 6 get stringwidth pop -2 div
     dup 0 R} {dup 6 get stringwidth pop -2 div 0 R 6 get
     textshow 2 index {aload pop M neg 3 -1 roll neg R pop pop} {pop pop pop
     pop aload pop M} ifelse }ifelse }ifelse }
     ifelse }
   forall} def
/Gswidth {dup type /stringtype eq {stringwidth} {pop (n) stringwidth} ifelse} def
/MFwidth {0 exch { dup 5 get 3 ge { 5 get 3 eq { 0 } { pop } ifelse }
 {dup 3 get{dup dup 0 get findfont exch 1 get scalefont setfont
     6 get Gswidth pop add} {pop} ifelse} ifelse} forall} def
/MLshow { currentpoint stroke M
  0 exch R
  Blacktext {gsave 0 setgray MFshow grestore} {MFshow} ifelse } bind def
/MRshow { currentpoint stroke M
  exch dup MFwidth neg 3 -1 roll R
  Blacktext {gsave 0 setgray MFshow grestore} {MFshow} ifelse } bind def
/MCshow { currentpoint stroke M
  exch dup MFwidth -2 div 3 -1 roll R
  Blacktext {gsave 0 setgray MFshow grestore} {MFshow} ifelse } bind def
/XYsave    { [( ) 1 2 true false 3 ()] } bind def
/XYrestore { [( ) 1 2 true false 4 ()] } bind def
Level1 SuppressPDFMark or 
{} {
/SDict 10 dict def
systemdict /pdfmark known not {
  userdict /pdfmark systemdict /cleartomark get put
} if
SDict begin [
  /Title (ps_symbols.ps)
  /Subject (gnuplot plot)
  /Creator (gnuplot 5.0 patchlevel 0)
  /Author (Tatsu)
%  /Producer (gnuplot)
%  /Keywords ()
  /CreationDate (Thu Feb 19 12:32:03 2015)
  /DOCINFO pdfmark
end
} ifelse
end
%
% Support for boxed text - Ethan A Merritt May 2005
%
/InitTextBox { userdict /TBy2 3 -1 roll put userdict /TBx2 3 -1 roll put
           userdict /TBy1 3 -1 roll put userdict /TBx1 3 -1 roll put
	   /Boxing true def } def
/ExtendTextBox { Boxing
    { gsave dup false charpath pathbbox
      dup TBy2 gt {userdict /TBy2 3 -1 roll put} {pop} ifelse
      dup TBx2 gt {userdict /TBx2 3 -1 roll put} {pop} ifelse
      dup TBy1 lt {userdict /TBy1 3 -1 roll put} {pop} ifelse
      dup TBx1 lt {userdict /TBx1 3 -1 roll put} {pop} ifelse
      grestore } if } def
/PopTextBox { newpath TBx1 TBxmargin sub TBy1 TBymargin sub M
               TBx1 TBxmargin sub TBy2 TBymargin add L
	       TBx2 TBxmargin add TBy2 TBymargin add L
	       TBx2 TBxmargin add TBy1 TBymargin sub L closepath } def
/DrawTextBox { PopTextBox stroke /Boxing false def} def
/FillTextBox { gsave PopTextBox 1 1 1 setrgbcolor fill grestore /Boxing false def} def
0 0 0 0 InitTextBox
/TBxmargin 20 def
/TBymargin 20 def
/Boxing false def
/textshow { ExtendTextBox Gshow } def
%
%%EndProlog
%%Page: 1 1
gnudict begin
gsave
doclip
50 50 translate
0.100 0.100 scale
90 rotate
0 -5040 translate
0 setgray
newpath
(Helvetica) findfont 140 scalefont setfont
BackgroundColor 0 lt 3 1 roll 0 lt exch 0 lt or or not {gsave BackgroundColor C clippath fill grestore} if
1.000 UL
LTb
1.000 UP
LCb setrgbcolor
2342 2394 M
[ [(Helvetica) 140.0 0.0 true true 0 (\(#70--75 are opaque\))]
] -46.7 MCshow
LCb setrgbcolor
4326 2394 M
[ [(Helvetica) 140.0 0.0 true true 0 (0)]
] -46.7 MCshow
LCb setrgbcolor
4159 3191 M
[ [(Helvetica) 140.0 0.0 true true 0 (5)]
] -46.7 MCshow
LCb setrgbcolor
3686 3853 M
[ [(Helvetica) 140.0 0.0 true true 0 (10)]
] -46.7 MCshow
LCb setrgbcolor
2986 4270 M
[ [(Helvetica) 140.0 0.0 true true 0 (15)]
] -46.7 MCshow
LCb setrgbcolor
2178 4371 M
[ [(Helvetica) 140.0 0.0 true true 0 (20)]
] -46.7 MCshow
LCb setrgbcolor
1397 4139 M
[ [(Helvetica) 140.0 0.0 true true 0 (25)]
] -46.7 MCshow
LCb setrgbcolor
776 3612 M
[ [(Helvetica) 140.0 0.0 true true 0 (30)]
] -46.7 MCshow
LCb setrgbcolor
418 2881 M
[ [(Helvetica) 140.0 0.0 true true 0 (35)]
] -46.7 MCshow
LCb setrgbcolor
384 2067 M
[ [(Helvetica) 140.0 0.0 true true 0 (40)]
] -46.7 MCshow
LCb setrgbcolor
680 1308 M
[ [(Helvetica) 140.0 0.0 true true 0 (45)]
] -46.7 MCshow
LCb setrgbcolor
1256 732 M
[ [(Helvetica) 140.0 0.0 true true 0 (50)]
] -46.7 MCshow
LCb setrgbcolor
2015 436 M
[ [(Helvetica) 140.0 0.0 true true 0 (55)]
] -46.7 MCshow
LCb setrgbcolor
2829 470 M
[ [(Helvetica) 140.0 0.0 true true 0 (60)]
] -46.7 MCshow
LCb setrgbcolor
3560 828 M
[ [(Helvetica) 140.0 0.0 true true 0 (65)]
] -46.7 MCshow
LCb setrgbcolor
4087 1449 M
[ [(Helvetica) 140.0 0.0 true true 0 (70)]
] -46.7 MCshow
LCb setrgbcolor
4319 2230 M
[ [(Helvetica) 140.0 0.0 true true 0 (75)]
] -46.7 MCshow
1.000 UL
LTa
3176 2394 M
964 0 V
stroke
LTb
LCb setrgbcolor
3173 2462 M
961 80 V
stroke
LTb
LCb setrgbcolor
3165 2531 M
951 159 V
stroke
LTb
LCb setrgbcolor
3151 2598 M
934 237 V
stroke
LTb
LCb setrgbcolor
3131 2664 M
912 314 V
stroke
LTb
LCb setrgbcolor
3106 2729 M
883 387 V
stroke
LTb
LCb setrgbcolor
3075 2791 M
849 459 V
stroke
LTb
LCb setrgbcolor
3040 2850 M
808 527 V
stroke
LTb
LCb setrgbcolor
3000 2906 M
761 592 V
stroke
LTb
LCb setrgbcolor
2956 2959 M
709 653 V
stroke
LTb
LCb setrgbcolor
2907 3008 M
653 709 V
stroke
LTb
LCb setrgbcolor
2854 3052 M
592 761 V
stroke
LTb
LCb setrgbcolor
2798 3092 M
527 808 V
stroke
LTb
LCb setrgbcolor
2739 3127 M
459 849 V
stroke
LTb
LCb setrgbcolor
2677 3158 M
387 883 V
stroke
LTb
LCb setrgbcolor
2612 3183 M
314 912 V
stroke
LTb
LCb setrgbcolor
2546 3203 M
237 934 V
stroke
LTb
LCb setrgbcolor
2479 3217 M
159 951 V
stroke
LTb
LCb setrgbcolor
2410 3225 M
80 961 V
stroke
LTb
LCb setrgbcolor
2342 3228 M
0 964 V
stroke
LTb
LCb setrgbcolor
2273 3225 M
-80 961 V
stroke
LTb
LCb setrgbcolor
2204 3217 M
-159 951 V
stroke
LTb
LCb setrgbcolor
2137 3203 M
-237 934 V
stroke
LTb
LCb setrgbcolor
2071 3183 M
-314 912 V
stroke
LTb
LCb setrgbcolor
2006 3158 M
-387 883 V
stroke
LTb
LCb setrgbcolor
1944 3127 M
-459 849 V
stroke
LTb
LCb setrgbcolor
1885 3092 M
-527 808 V
stroke
LTb
LCb setrgbcolor
1829 3052 M
-592 761 V
stroke
LTb
LCb setrgbcolor
1776 3008 M
-653 709 V
stroke
LTb
LCb setrgbcolor
1727 2959 M
-709 653 V
stroke
LTb
LCb setrgbcolor
1683 2906 M
922 3498 L
stroke
LTb
LCb setrgbcolor
1643 2850 M
835 3377 L
stroke
LTb
LCb setrgbcolor
1608 2791 M
759 3250 L
stroke
LTb
LCb setrgbcolor
1577 2729 M
694 3116 L
stroke
LTb
LCb setrgbcolor
1552 2664 M
640 2978 L
stroke
LTb
LCb setrgbcolor
1532 2598 M
598 2835 L
stroke
LTb
LCb setrgbcolor
1518 2531 M
567 2690 L
stroke
LTb
LCb setrgbcolor
1510 2462 M
-961 80 V
stroke
LTb
LCb setrgbcolor
1507 2394 M
-964 0 V
stroke
LTb
LCb setrgbcolor
1510 2325 M
549 2245 L
stroke
LTb
LCb setrgbcolor
1518 2256 M
567 2097 L
stroke
LTb
LCb setrgbcolor
1532 2189 M
598 1952 L
stroke
LTb
LCb setrgbcolor
1552 2123 M
640 1809 L
stroke
LTb
LCb setrgbcolor
1577 2058 M
694 1671 L
stroke
LTb
LCb setrgbcolor
1608 1996 M
759 1537 L
stroke
LTb
LCb setrgbcolor
1643 1937 M
835 1410 L
stroke
LTb
LCb setrgbcolor
1683 1881 M
922 1289 L
stroke
LTb
LCb setrgbcolor
1727 1828 M
1018 1175 L
stroke
LTb
LCb setrgbcolor
1776 1779 M
1123 1070 L
stroke
LTb
LCb setrgbcolor
1829 1735 M
1237 974 L
stroke
LTb
LCb setrgbcolor
1885 1695 M
1358 887 L
stroke
LTb
LCb setrgbcolor
1944 1660 M
1485 811 L
stroke
LTb
LCb setrgbcolor
2006 1629 M
1619 746 L
stroke
LTb
LCb setrgbcolor
2071 1604 M
1757 692 L
stroke
LTb
LCb setrgbcolor
2137 1584 M
1900 650 L
stroke
LTb
LCb setrgbcolor
2204 1570 M
2045 619 L
stroke
LTb
LCb setrgbcolor
2273 1562 M
2193 601 L
stroke
LTb
LCb setrgbcolor
2342 1559 M
-1 -964 V
stroke
LTb
LCb setrgbcolor
2410 1562 M
80 -961 V
stroke
LTb
LCb setrgbcolor
2479 1570 M
2638 619 L
stroke
LTb
LCb setrgbcolor
2546 1584 M
2783 650 L
stroke
LTb
LCb setrgbcolor
2612 1604 M
2926 692 L
stroke
LTb
LCb setrgbcolor
2677 1629 M
3064 746 L
stroke
LTb
LCb setrgbcolor
2739 1660 M
3198 811 L
stroke
LTb
LCb setrgbcolor
2798 1695 M
3325 887 L
stroke
LTb
LCb setrgbcolor
2854 1735 M
3446 974 L
stroke
LTb
LCb setrgbcolor
2907 1779 M
653 -709 V
stroke
LTb
LCb setrgbcolor
2956 1828 M
709 -653 V
stroke
LTb
LCb setrgbcolor
3000 1881 M
761 -592 V
stroke
LTb
LCb setrgbcolor
3040 1937 M
808 -527 V
stroke
LTb
LCb setrgbcolor
3075 1996 M
849 -459 V
stroke
LTb
LCb setrgbcolor
3106 2058 M
883 -387 V
stroke
LTb
LCb setrgbcolor
3131 2123 M
912 -314 V
stroke
LTb
LCb setrgbcolor
3151 2189 M
934 -237 V
stroke
LTb
LCb setrgbcolor
3165 2256 M
951 -159 V
stroke
LTb
LCb setrgbcolor
3173 2325 M
961 -80 V
stroke
LTb
LCb setrgbcolor
2341 4829 M
[ [(Helvetica) 140.0 0.0 true true 0 (Symbols and linetypes in Postscript terminal)]
] -46.7 MCshow
% Begin plot #1
1.000 UP
1.000 UL
LTa
/Helvetica findfont 140 scalefont setfont
/vshift -46 def
% End plot #1
% Begin plot #2
1.000 UP
1.000 UL
LTa
/Helvetica findfont 140 scalefont setfont
4190 2547 Pls
4190 2547 Pls
% End plot #2
% Begin plot #3
1.000 UP
1.000 UL
LTa
/Helvetica findfont 140 scalefont setfont
4171 2699 Crs
4171 2699 Crs
% End plot #3
% Begin plot #4
1.000 UP
1.000 UL
LTa
/Helvetica findfont 140 scalefont setfont
4139 2849 Star
4139 2849 Star
% End plot #4
% Begin plot #5
1.000 UP
1.000 UL
LTa
/Helvetica findfont 140 scalefont setfont
4096 2996 Box
4096 2996 Box
% End plot #5
% Begin plot #6
1.000 UP
1.000 UL
LTa
/Helvetica findfont 140 scalefont setfont
4040 3138 BoxF
4040 3138 BoxF
% End plot #6
% Begin plot #7
1.000 UP
1.000 UL
LTa
/Helvetica findfont 140 scalefont setfont
3973 3276 Circle
3973 3276 Circle
% End plot #7
% Begin plot #8
1.000 UP
1.000 UL
LTa
/Helvetica findfont 140 scalefont setfont
3894 3408 CircleF
3894 3408 CircleF
% End plot #8
% Begin plot #9
1.000 UP
1.000 UL
LTa
/Helvetica findfont 140 scalefont setfont
3805 3533 TriU
3805 3533 TriU
% End plot #9
% Begin plot #10
1.000 UP
1.000 UL
LTa
/Helvetica findfont 140 scalefont setfont
3706 3650 TriUF
3706 3650 TriUF
% End plot #10
% Begin plot #11
1.000 UP
1.000 UL
LTa
/Helvetica findfont 140 scalefont setfont
3598 3758 TriD
3598 3758 TriD
% End plot #11
% Begin plot #12
1.000 UP
1.000 UL
LTa
/Helvetica findfont 140 scalefont setfont
3481 3857 TriDF
3481 3857 TriDF
% End plot #12
% Begin plot #13
1.000 UP
1.000 UL
LTa
/Helvetica findfont 140 scalefont setfont
3356 3946 Dia
3356 3946 Dia
% End plot #13
% Begin plot #14
1.000 UP
1.000 UL
LTa
/Helvetica findfont 140 scalefont setfont
3224 4025 DiaF
3224 4025 DiaF
% End plot #14
% Begin plot #15
1.000 UP
1.000 UL
LTa
/Helvetica findfont 140 scalefont setfont
3086 4092 Pent
3086 4092 Pent
% End plot #15
% Begin plot #16
1.000 UP
1.000 UL
LTa
/Helvetica findfont 140 scalefont setfont
2944 4148 PentF
2944 4148 PentF
% End plot #16
% Begin plot #17
1.000 UP
1.000 UL
LTa
/Helvetica findfont 140 scalefont setfont
2797 4191 C0
2797 4191 C0
% End plot #17
% Begin plot #18
1.000 UP
1.000 UL
LTa
/Helvetica findfont 140 scalefont setfont
2647 4223 C1
2647 4223 C1
% End plot #18
% Begin plot #19
1.000 UP
1.000 UL
LTa
/Helvetica findfont 140 scalefont setfont
2495 4242 C2
2495 4242 C2
% End plot #19
% Begin plot #20
1.000 UP
1.000 UL
LTa
/Helvetica findfont 140 scalefont setfont
2342 4248 C3
2342 4248 C3
% End plot #20
% Begin plot #21
1.000 UP
1.000 UL
LTa
/Helvetica findfont 140 scalefont setfont
2188 4242 C4
2188 4242 C4
% End plot #21
% Begin plot #22
1.000 UP
1.000 UL
LTa
/Helvetica findfont 140 scalefont setfont
2036 4223 C5
2036 4223 C5
% End plot #22
% Begin plot #23
1.000 UP
1.000 UL
LTa
/Helvetica findfont 140 scalefont setfont
1886 4191 C6
1886 4191 C6
% End plot #23
% Begin plot #24
1.000 UP
1.000 UL
LTa
/Helvetica findfont 140 scalefont setfont
1739 4148 C7
1739 4148 C7
% End plot #24
% Begin plot #25
1.000 UP
1.000 UL
LTa
/Helvetica findfont 140 scalefont setfont
1597 4092 C8
1597 4092 C8
% End plot #25
% Begin plot #26
1.000 UP
1.000 UL
LTa
/Helvetica findfont 140 scalefont setfont
1459 4025 C9
1459 4025 C9
% End plot #26
% Begin plot #27
1.000 UP
1.000 UL
LTa
/Helvetica findfont 140 scalefont setfont
1327 3946 C10
1327 3946 C10
% End plot #27
% Begin plot #28
1.000 UP
1.000 UL
LTa
/Helvetica findfont 140 scalefont setfont
1202 3857 C11
1202 3857 C11
% End plot #28
% Begin plot #29
1.000 UP
1.000 UL
LTa
/Helvetica findfont 140 scalefont setfont
1085 3758 C12
1085 3758 C12
% End plot #29
% Begin plot #30
1.000 UP
1.000 UL
LTa
/Helvetica findfont 140 scalefont setfont
977 3650 C13
977 3650 C13
% End plot #30
% Begin plot #31
1.000 UP
1.000 UL
LTa
/Helvetica findfont 140 scalefont setfont
878 3533 C14
878 3533 C14
% End plot #31
% Begin plot #32
1.000 UP
1.000 UL
LTa
/Helvetica findfont 140 scalefont setfont
789 3408 C15
789 3408 C15
% End plot #32
% Begin plot #33
1.000 UP
1.000 UL
LTa
/Helvetica findfont 140 scalefont setfont
710 3276 S0
710 3276 S0
% End plot #33
% Begin plot #34
1.000 UP
1.000 UL
LTa
/Helvetica findfont 140 scalefont setfont
643 3138 S1
643 3138 S1
% End plot #34
% Begin plot #35
1.000 UP
1.000 UL
LTa
/Helvetica findfont 140 scalefont setfont
587 2996 S2
587 2996 S2
% End plot #35
% Begin plot #36
1.000 UP
1.000 UL
LTa
/Helvetica findfont 140 scalefont setfont
544 2849 S3
544 2849 S3
% End plot #36
% Begin plot #37
1.000 UP
1.000 UL
LTa
/Helvetica findfont 140 scalefont setfont
512 2699 S4
512 2699 S4
% End plot #37
% Begin plot #38
1.000 UP
1.000 UL
LTa
/Helvetica findfont 140 scalefont setfont
493 2547 S5
493 2547 S5
% End plot #38
% Begin plot #39
1.000 UP
1.000 UL
LTa
/Helvetica findfont 140 scalefont setfont
487 2394 S6
487 2394 S6
% End plot #39
% Begin plot #40
1.000 UP
1.000 UL
LTa
/Helvetica findfont 140 scalefont setfont
493 2240 S7
493 2240 S7
% End plot #40
% Begin plot #41
1.000 UP
1.000 UL
LTa
/Helvetica findfont 140 scalefont setfont
512 2088 S8
512 2088 S8
% End plot #41
% Begin plot #42
1.000 UP
1.000 UL
LTa
/Helvetica findfont 140 scalefont setfont
544 1938 S9
544 1938 S9
% End plot #42
% Begin plot #43
1.000 UP
1.000 UL
LTa
/Helvetica findfont 140 scalefont setfont
587 1791 S10
587 1791 S10
% End plot #43
% Begin plot #44
1.000 UP
1.000 UL
LTa
/Helvetica findfont 140 scalefont setfont
643 1649 S11
643 1649 S11
% End plot #44
% Begin plot #45
1.000 UP
1.000 UL
LTa
/Helvetica findfont 140 scalefont setfont
710 1511 S12
710 1511 S12
% End plot #45
% Begin plot #46
1.000 UP
1.000 UL
LTa
/Helvetica findfont 140 scalefont setfont
789 1379 S13
789 1379 S13
% End plot #46
% Begin plot #47
1.000 UP
1.000 UL
LTa
/Helvetica findfont 140 scalefont setfont
878 1254 S14
878 1254 S14
% End plot #47
% Begin plot #48
1.000 UP
1.000 UL
LTa
/Helvetica findfont 140 scalefont setfont
977 1137 S15
977 1137 S15
% End plot #48
% Begin plot #49
1.000 UP
1.000 UL
LTa
/Helvetica findfont 140 scalefont setfont
1085 1029 D0
1085 1029 D0
% End plot #49
% Begin plot #50
1.000 UP
1.000 UL
LTa
/Helvetica findfont 140 scalefont setfont
1202 930 D1
1202 930 D1
% End plot #50
% Begin plot #51
1.000 UP
1.000 UL
LTa
/Helvetica findfont 140 scalefont setfont
1327 841 D2
1327 841 D2
% End plot #51
% Begin plot #52
1.000 UP
1.000 UL
LTa
/Helvetica findfont 140 scalefont setfont
1459 762 D3
1459 762 D3
% End plot #52
% Begin plot #53
1.000 UP
1.000 UL
LTa
/Helvetica findfont 140 scalefont setfont
1597 695 D4
1597 695 D4
% End plot #53
% Begin plot #54
1.000 UP
1.000 UL
LTa
/Helvetica findfont 140 scalefont setfont
1739 639 D5
1739 639 D5
% End plot #54
% Begin plot #55
1.000 UP
1.000 UL
LTa
/Helvetica findfont 140 scalefont setfont
1886 596 D6
1886 596 D6
% End plot #55
% Begin plot #56
1.000 UP
1.000 UL
LTa
/Helvetica findfont 140 scalefont setfont
2036 564 D7
2036 564 D7
% End plot #56
% Begin plot #57
1.000 UP
1.000 UL
LTa
/Helvetica findfont 140 scalefont setfont
2188 545 D8
2188 545 D8
% End plot #57
% Begin plot #58
1.000 UP
1.000 UL
LTa
/Helvetica findfont 140 scalefont setfont
2341 539 D9
2341 539 D9
% End plot #58
% Begin plot #59
1.000 UP
1.000 UL
LTa
/Helvetica findfont 140 scalefont setfont
2495 545 D10
2495 545 D10
% End plot #59
% Begin plot #60
1.000 UP
1.000 UL
LTa
/Helvetica findfont 140 scalefont setfont
2647 564 D11
2647 564 D11
% End plot #60
% Begin plot #61
1.000 UP
1.000 UL
LTa
/Helvetica findfont 140 scalefont setfont
2797 596 D12
2797 596 D12
% End plot #61
% Begin plot #62
1.000 UP
1.000 UL
LTa
/Helvetica findfont 140 scalefont setfont
2944 639 D13
2944 639 D13
% End plot #62
% Begin plot #63
1.000 UP
1.000 UL
LTa
/Helvetica findfont 140 scalefont setfont
3086 695 D14
3086 695 D14
% End plot #63
% Begin plot #64
1.000 UP
1.000 UL
LTa
/Helvetica findfont 140 scalefont setfont
3224 762 D15
3224 762 D15
% End plot #64
% Begin plot #65
1.000 UP
1.000 UL
LTa
/Helvetica findfont 140 scalefont setfont
3356 841 BoxE
3356 841 BoxE
% End plot #65
% Begin plot #66
1.000 UP
1.000 UL
LTa
/Helvetica findfont 140 scalefont setfont
3481 930 CircE
3481 930 CircE
% End plot #66
% Begin plot #67
1.000 UP
1.000 UL
LTa
/Helvetica findfont 140 scalefont setfont
3598 1029 TriUE
3598 1029 TriUE
% End plot #67
% Begin plot #68
1.000 UP
1.000 UL
LTa
/Helvetica findfont 140 scalefont setfont
3706 1137 TriDE
3706 1137 TriDE
% End plot #68
% Begin plot #69
1.000 UP
1.000 UL
LTa
/Helvetica findfont 140 scalefont setfont
3805 1254 DiaE
3805 1254 DiaE
% End plot #69
% Begin plot #70
1.000 UP
1.000 UL
LTa
/Helvetica findfont 140 scalefont setfont
3894 1379 PentE
3894 1379 PentE
% End plot #70
% Begin plot #71
1.000 UP
1.000 UL
LTa
/Helvetica findfont 140 scalefont setfont
3973 1511 BoxW
3973 1511 BoxW
% End plot #71
% Begin plot #72
1.000 UP
1.000 UL
LTa
/Helvetica findfont 140 scalefont setfont
4040 1649 CircW
4040 1649 CircW
% End plot #72
% Begin plot #73
1.000 UP
1.000 UL
LTa
/Helvetica findfont 140 scalefont setfont
4096 1791 TriUW
4096 1791 TriUW
% End plot #73
% Begin plot #74
1.000 UP
1.000 UL
LTa
/Helvetica findfont 140 scalefont setfont
4139 1938 TriDW
4139 1938 TriDW
% End plot #74
% Begin plot #75
1.000 UP
1.000 UL
LTa
/Helvetica findfont 140 scalefont setfont
4171 2088 DiaW
4171 2088 DiaW
% End plot #75
% Begin plot #76
1.000 UP
1.000 UL
LTa
/Helvetica findfont 140 scalefont setfont
4190 2240 PentW
4190 2240 PentW
% End plot #76
2.000 UL
LTb
1.000 UP
1.000 UL
LTb
stroke
grestore
end
showpage
%%Trailer
%%DocumentFonts: Helvetica
%%Pages: 1
